Solar Mini-Grid Power Consumption Profiles in the DRC
…
# Calculate total max consumption during the peak load as a worst case
daily_total_composition <- summary_by_group %>%
  # Keep only the rows where the peak load value is not zero
  filter(kWh_per_day != 0) %>%
  group_by(Date, customer_type) %>%
  summarise(
    Total_kWh_avg = sum(kWh_per_day, na.rm = TRUE),
    .groups = "drop"
  )

# Preview the daily kWh values for each type
print(daily_total_composition)

# A tibble: 244 × 3
   Date                customer_type      Total_kWh_avg
   <dttm>              <chr>                      <dbl>
 1 2026-04-01 00:00:00 C&I                        2501.
 2 2026-04-01 00:00:00 Residential                2235.
 3 2026-04-01 00:00:00 SME                        1893.
 4 2026-04-01 00:00:00 Social Institution          149.
 5 2026-04-02 00:00:00 C&I                        2447.
 6 2026-04-02 00:00:00 Residential                2147.
 7 2026-04-02 00:00:00 SME                        1817.
 8 2026-04-02 00:00:00 Social Institution          164.
 9 2026-04-03 00:00:00 C&I                        2438.
10 2026-04-03 00:00:00 Residential                2191.
# ℹ 234 more rows
…
# Calculate total max consumption during the peak load as a worst case
daily_composition <- summary_by_group %>%
  # Keep only the rows where the peak load value is not zero
  filter(kWh_avg_max != 0) %>%
  group_by(Date, customer_type) %>%
  summarise(
    Max_kWh_peak = sum(kWh_avg_max, na.rm = TRUE),
    .groups = "drop"
  )

# Preview the daily kWh peak values for each type
print(daily_composition)

# A tibble: 244 × 3
   Date                customer_type      Max_kWh_peak
   <dttm>              <chr>                     <dbl>
 1 2026-04-01 00:00:00 C&I                       230. 
 2 2026-04-01 00:00:00 Residential               231. 
 3 2026-04-01 00:00:00 SME                       225. 
 4 2026-04-01 00:00:00 Social Institution         16.0
 5 2026-04-02 00:00:00 C&I                       202. 
 6 2026-04-02 00:00:00 Residential               209. 
 7 2026-04-02 00:00:00 SME                       228. 
 8 2026-04-02 00:00:00 Social Institution         18.9
 9 2026-04-03 00:00:00 C&I                       178. 
10 2026-04-03 00:00:00 Residential               212. 
# ℹ 234 more rows
…
